%YAML 1.1
%TAG !u! tag:unity3d.com,2011:
--- !u!74 &7400000
AnimationClip:
  m_ObjectHideFlags: 0
  m_PrefabParentObject: {fileID: 0}
  m_PrefabInternal: {fileID: 0}
  m_Name: Thruster
  serializedVersion: 6
  m_Legacy: 0
  m_Compressed: 0
  m_UseHighQualityCurve: 1
  m_RotationCurves: []
  m_CompressedRotationCurves: []
  m_EulerCurves: []
  m_PositionCurves: []
  m_ScaleCurves: []
  m_FloatCurves: []
  m_PPtrCurves:
  - curve:
    - time: 0
      value: {fileID: 21300000, guid: a45d21c30e0154a9ca1a5d6fb2bf3cfa, type: 3}
    - time: 0.016666668
      value: {fileID: 21300000, guid: 1719806011a3d4b4282d1f99e4f050e9, type: 3}
    - time: 0.033333335
      value: {fileID: 21300000, guid: 434b435b9093a49af9b771620ab9414a, type: 3}
    - time: 0.05
      value: {fileID: 21300000, guid: 0a4fcb091735d4ebaba319583cbed122, type: 3}
    - time: 0.06666667
      value: {fileID: 21300000, guid: 9a668c5bfaf6449e0916bb563a15edde, type: 3}
    - time: 0.083333336
      value: {fileID: 21300000, guid: e02b5188ae04149818de6bee3da89b9f, type: 3}
    - time: 0.1
      value: {fileID: 21300000, guid: c722ba823f19b4ee693e239e7857f740, type: 3}
    - time: 0.11666667
      value: {fileID: 21300000, guid: f5578adaef9d34a9bab586db8a9188bd, type: 3}
    - time: 0.13333334
      value: {fileID: 21300000, guid: 77b45aa57bb8644d294034eead38844e, type: 3}
    - time: 0.15
      value: {fileID: 21300000, guid: 298295185984547b7bb4fd2ed844f92c, type: 3}
    - time: 0.16666667
      value: {fileID: 21300000, guid: fad9cbeb1f3cd4ceca8fb7e82249f82f, type: 3}
    - time: 0.18333334
      value: {fileID: 21300000, guid: c10f06b274a164bbb8316cd6555e1803, type: 3}
    - time: 0.2
      value: {fileID: 21300000, guid: 84d1a98c6144b4ea19117294321b42f6, type: 3}
    - time: 0.21666667
      value: {fileID: 21300000, guid: f01b1f5ee6ee446129cb2ce5ee970d41, type: 3}
    - time: 0.23333333
      value: {fileID: 21300000, guid: a76c2bbbd8e1f45bea939ceeb3ada592, type: 3}
    - time: 0.25
      value: {fileID: 21300000, guid: 34f0ba354cf444e7b8901d28cbfb869b, type: 3}
    - time: 0.26666668
      value: {fileID: 21300000, guid: c2dea038ca36d4388bcf6953ca023881, type: 3}
    - time: 0.28333336
      value: {fileID: 21300000, guid: 3af80dabfb3d647ff94f8a630d749e5c, type: 3}
    - time: 0.30000004
      value: {fileID: 21300000, guid: abef6a6fdc4ab421e9da5f177026134c, type: 3}
    - time: 0.31666672
      value: {fileID: 21300000, guid: 2d45817a8ac8e41bba5bc5b701048a62, type: 3}
    - time: 0.3333334
      value: {fileID: 21300000, guid: 5384ed7d929c146b98b21e1f48dfe591, type: 3}
    attribute: m_Sprite
    path: 
    classID: 212
    script: {fileID: 0}
  m_SampleRate: 60
  m_WrapMode: 0
  m_Bounds:
    m_Center: {x: 0, y: 0, z: 0}
    m_Extent: {x: 0, y: 0, z: 0}
  m_ClipBindingConstant:
    genericBindings:
    - serializedVersion: 2
      path: 0
      attribute: 0
      script: {fileID: 0}
      typeID: 212
      customType: 23
      isPPtrCurve: 1
    pptrCurveMapping:
    - {fileID: 21300000, guid: a45d21c30e0154a9ca1a5d6fb2bf3cfa, type: 3}
    - {fileID: 21300000, guid: 1719806011a3d4b4282d1f99e4f050e9, type: 3}
    - {fileID: 21300000, guid: 434b435b9093a49af9b771620ab9414a, type: 3}
    - {fileID: 21300000, guid: 0a4fcb091735d4ebaba319583cbed122, type: 3}
    - {fileID: 21300000, guid: 9a668c5bfaf6449e0916bb563a15edde, type: 3}
    - {fileID: 21300000, guid: e02b5188ae04149818de6bee3da89b9f, type: 3}
    - {fileID: 21300000, guid: c722ba823f19b4ee693e239e7857f740, type: 3}
    - {fileID: 21300000, guid: f5578adaef9d34a9bab586db8a9188bd, type: 3}
    - {fileID: 21300000, guid: 77b45aa57bb8644d294034eead38844e, type: 3}
    - {fileID: 21300000, guid: 298295185984547b7bb4fd2ed844f92c, type: 3}
    - {fileID: 21300000, guid: fad9cbeb1f3cd4ceca8fb7e82249f82f, type: 3}
    - {fileID: 21300000, guid: c10f06b274a164bbb8316cd6555e1803, type: 3}
    - {fileID: 21300000, guid: 84d1a98c6144b4ea19117294321b42f6, type: 3}
    - {fileID: 21300000, guid: f01b1f5ee6ee446129cb2ce5ee970d41, type: 3}
    - {fileID: 21300000, guid: a76c2bbbd8e1f45bea939ceeb3ada592, type: 3}
    - {fileID: 21300000, guid: 34f0ba354cf444e7b8901d28cbfb869b, type: 3}
    - {fileID: 21300000, guid: c2dea038ca36d4388bcf6953ca023881, type: 3}
    - {fileID: 21300000, guid: 3af80dabfb3d647ff94f8a630d749e5c, type: 3}
    - {fileID: 21300000, guid: abef6a6fdc4ab421e9da5f177026134c, type: 3}
    - {fileID: 21300000, guid: 2d45817a8ac8e41bba5bc5b701048a62, type: 3}
    - {fileID: 21300000, guid: 5384ed7d929c146b98b21e1f48dfe591, type: 3}
  m_AnimationClipSettings:
    serializedVersion: 2
    m_AdditiveReferencePoseClip: {fileID: 0}
    m_AdditiveReferencePoseTime: 0
    m_StartTime: 0
    m_StopTime: 0.35000008
    m_OrientationOffsetY: 0
    m_Level: 0
    m_CycleOffset: 0
    m_HasAdditiveReferencePose: 0
    m_LoopTime: 1
    m_LoopBlend: 0
    m_LoopBlendOrientation: 0
    m_LoopBlendPositionY: 0
    m_LoopBlendPositionXZ: 0
    m_KeepOriginalOrientation: 0
    m_KeepOriginalPositionY: 1
    m_KeepOriginalPositionXZ: 0
    m_HeightFromFeet: 0
    m_Mirror: 0
  m_EditorCurves: []
  m_EulerEditorCurves: []
  m_HasGenericRootTransform: 0
  m_HasMotionFloatCurves: 0
  m_GenerateMotionCurves: 0
  m_Events: []
